﻿4204,53,1,3,2,NULL,26/03/2007,26/03/2007,A,2,1537,001,1,NULL,S,501.00,0.00,0.00,0.00,58,N,S,3.21,N,S
20994,1361,1,3,44,NULL,19/03/2011,27/03/2007,A,2,22241,002,1,NULL,S,139.00,0.00,0.00,0.00,58,N,S,2.82,N,S
21990,1326,1,3,44,NULL,12/06/2011,28/03/2007,A,2,4224,001,1,NULL,S,600.00,0.00,0.00,0.00,58,N,S,2.83,N,S
22311,1326,1,3,44,NULL,07/07/2011,29/03/2007,A,2,4264,001,1,NULL,S,700.00,0.00,0.00,0.00,58,N,S,2.83,N,S
22529,1326,1,3,44,NULL,25/07/2011,30/03/2007,A,2,4289,001,1,NULL,S,300.00,0.00,0.00,0.00,58,N,S,2.83,N,S
20476,1361,1,3,45,NULL,02/02/2011,31/03/2007,A,2,4051,001,1,NULL,S,210.00,0.00,0.00,0.00,58,N,S,2.83,N,S
20575,1326,1,3,45,NULL,11/02/2011,01/04/2007,A,2,4070,001,1,NULL,S,300.00,0.00,0.00,0.00,58,N,S,2.82,N,S
20639,416,1,3,45,NULL,18/02/2011,02/04/2007,A,2,4077,001,1,NULL,S,2850.00,0.00,0.00,0.00,58,N,S,2.82,N,S
24472,1283,1,3,46,NULL,11/01/2012,03/04/2007,A,2,4592,001,1,NULL,S,400.00,0.00,0.00,0.00,58,N,S,2.80,N,S
25888,1320,1,3,46,NULL,12/05/2012,04/04/2007,A,2,26415,002,1,NULL,S,339.00,0.00,0.00,0.00,58,N,S,2.75,N,S
23252,489,1,3,42,NULL,27/09/2011,05/04/2007,A,2,4410,001,1,NULL,S,1020.00,0.00,0.00,0.00,58,N,S,2.80,N,S
8145,679,1,3,2,NULL,18/03/2008,06/04/2007,A,2,2186,001,1,NULL,S,500.00,0.00,0.00,0.00,58,N,S,3.10,N,S
30937,1361,1,3,29,NULL,10/10/2013,07/04/2007,A,2,30872,002,1,NULL,S,600.00,0.00,0.00,0.00,58,N,S,2.80,N,S
30088,489,1,3,50,NULL,10/07/2013,08/04/2007,A,2,30101,002,1,NULL,S,1750.00,0.00,0.00,0.00,58,N,S,2.78,N,S
10683,1326,1,3,42,NULL,06/09/2008,09/04/2007,A,2,2630,001,1,NULL,S,500.00,0.00,0.00,0.00,58,N,S,3.00,N,S
11630,1361,1,3,2,NULL,18/11/2008,10/04/2007,A,2,2817,001,1,NULL,S,1299.00,0.00,0.00,0.00,58,N,S,3.12,N,S
11980,1326,1,3,2,NULL,17/12/2008,11/04/2007,A,2,2877,001,1,NULL,S,539.00,0.00,0.00,0.00,58,N,S,3.16,N,S
13017,571,1,3,43,NULL,26/03/2009,12/04/2007,A,2,3037,001,1,NULL,S,500.00,0.00,0.00,0.00,4,N,S,3.22,N,S
14858,368,1,3,42,NULL,28/08/2009,13/04/2007,A,2,3312,001,1,NULL,S,102.00,0.00,0.00,0.00,58,N,S,3.01,N,S
15635,851,1,3,42,NULL,13/11/2009,14/04/2007,A,2,3421,001,1,NULL,S,50.00,0.00,0.00,0.00,9,N,S,3.00,N,S
16362,851,1,3,42,NULL,05/01/2010,15/04/2007,A,2,3514,001,1,NULL,S,514.00,0.00,0.00,0.00,9,N,S,2.95,N,S
16656,851,1,3,42,NULL,05/02/2010,16/04/2007,A,2,18468,002,1,NULL,S,260.00,0.00,0.00,0.00,9,N,S,2.95,N,S
17387,571,1,3,42,NULL,21/04/2010,17/04/2007,A,2,3653,001,1,NULL,S,1790.00,0.00,0.00,0.00,9,N,S,2.85,N,S
18040,851,1,3,42,NULL,16/06/2010,18/04/2007,A,2,19665,002,1,NULL,S,25.00,0.00,0.00,0.00,9,N,S,2.90,N,S
3140,1283,1,3,2,NULL,22/12/2006,19/04/2007,A,2,1367,001,1,NULL,S,1429.00,0.00,0.00,0.00,58,N,S,3.30,N,S
20712,851,1,3,42,NULL,24/02/2011,20/04/2007,A,2,21998,002,1,NULL,S,30.00,0.00,0.00,0.00,9,N,S,2.82,N,S
21127,53,1,3,44,NULL,02/04/2011,21/04/2007,A,2,4138,001,1,NULL,S,1800.00,0.00,0.00,0.00,58,N,S,2.82,N,S
23253,851,1,3,42,NULL,27/09/2011,22/04/2007,A,2,4411,001,1,NULL,S,140.00,0.00,0.00,0.00,9,N,S,2.80,N,S
24299,851,1,3,42,NULL,26/12/2011,23/04/2007,A,2,25074,002,1,NULL,S,6.00,0.00,0.00,0.00,9,N,S,2.80,N,S
14712,694,1,3,42,NULL,15/08/2009,24/04/2007,A,2,3289,001,1,NULL,S,439.00,0.00,0.00,0.00,58,N,S,3.01,N,S
14959,489,1,3,42,NULL,05/09/2009,25/04/2007,A,2,3321,001,1,NULL,S,1299.00,0.00,0.00,0.00,58,N,S,3.01,N,S
16249,1393,1,3,42,NULL,26/12/2009,26/04/2007,A,2,3496,001,1,NULL,S,850.00,0.00,0.00,0.00,58,N,S,2.95,N,S
17100,12,1,3,42,NULL,25/03/2010,27/04/2007,A,2,3602,001,1,NULL,S,180.00,0.00,0.00,0.00,58,N,S,2.95,N,S
4860,851,1,3,2,NULL,22/05/2007,28/04/2007,A,2,1646,001,1,NULL,S,1099.00,0.00,0.00,0.00,5,N,S,3.21,N,S
23521,258,1,3,46,NULL,22/10/2011,29/04/2007,A,2,4456,001,1,NULL,S,869.00,0.00,0.00,0.00,58,N,S,2.80,N,S
5301,164,1,3,2,NULL,06/07/2007,30/04/2007,A,2,8420,002,1,NULL,S,499.00,0.00,0.00,0.00,5,N,S,3.17,N,S
25921,1283,1,3,29,NULL,13/05/2012,01/05/2007,A,2,26450,002,1,NULL,S,330.00,0.00,0.00,0.00,58,N,S,2.75,N,S
29686,1326,1,3,50,NULL,25/05/2013,02/05/2007,A,2,5262,001,1,NULL,S,1579.00,0.00,0.00,0.00,58,N,S,2.65,N,S
31595,1320,1,3,29,NULL,24/12/2013,03/05/2007,A,2,31455,002,1,NULL,S,1130.00,0.00,0.00,0.00,58,N,S,3.00,N,S
31721,1320,1,3,52,NULL,05/01/2014,04/05/2007,A,2,31572,002,1,NULL,S,3300.00,0.00,0.00,0.00,58,N,S,3.00,N,S
31967,368,1,3,52,NULL,12/02/2014,05/05/2007,A,2,31789,002,1,NULL,S,3820.00,0.00,0.00,0.00,58,N,S,2.90,N,S
5668,679,1,3,2,NULL,07/08/2007,06/05/2007,A,2,1774,001,1,NULL,S,614.00,0.00,0.00,0.00,58,N,S,3.19,N,S
13938,1361,1,3,43,NULL,15/06/2009,07/05/2007,A,2,3202,001,1,NULL,S,760.00,0.00,0.00,0.00,58,N,S,3.05,N,S
15350,679,1,3,44,NULL,17/10/2009,08/05/2007,A,2,17328,002,1,NULL,S,409.00,0.00,0.00,0.00,58,N,S,3.01,N,S
6795,679,1,3,2,NULL,30/11/2007,09/05/2007,A,2,1984,001,1,NULL,S,1899.00,0.00,0.00,0.00,58,N,S,3.10,N,S
16865,1361,1,3,44,NULL,01/03/2010,10/05/2007,A,2,3576,001,1,NULL,S,2568.00,0.00,0.00,0.00,58,N,S,2.95,N,S
3305,694,1,3,2,NULL,29/12/2006,11/05/2007,A,2,6760,002,1,NULL,S,1219.00,0.00,0.00,0.00,58,N,S,3.30,N,S
17538,1361,1,3,44,NULL,03/05/2010,12/05/2007,A,2,3670,001,1,NULL,S,120.00,0.00,0.00,0.00,58,N,S,2.85,N,S
17860,1361,1,3,44,NULL,29/05/2010,13/05/2007,A,2,3720,001,1,NULL,S,530.00,0.00,0.00,0.00,58,N,S,2.90,N,S
18152,1361,1,3,44,NULL,28/06/2010,14/05/2007,A,2,3767,001,1,NULL,S,849.00,0.00,0.00,0.00,58,N,S,2.90,N,S
18550,679,1,3,44,NULL,01/08/2010,15/05/2007,A,2,20115,002,1,NULL,S,170.00,0.00,0.00,0.00,58,N,S,2.90,N,S
18560,368,1,3,44,NULL,02/08/2010,16/05/2007,A,2,20125,002,1,NULL,S,789.00,0.00,0.00,0.00,58,N,S,2.90,N,S
18677,1283,1,3,44,NULL,14/08/2010,17/05/2007,A,2,3822,001,1,NULL,S,708.00,0.00,0.00,0.00,58,N,S,2.90,N,S
18865,1155,1,3,44,NULL,31/08/2010,18/05/2007,A,2,3848,001,1,NULL,S,1698.00,0.00,0.00,0.00,58,N,S,2.90,N,S
18899,694,1,3,44,NULL,04/09/2010,19/05/2007,A,2,20422,002,1,NULL,S,549.00,0.00,0.00,0.00,58,N,S,2.90,N,S
15747,1361,1,3,42,NULL,24/11/2009,20/05/2007,A,2,17679,002,1,NULL,S,1937.00,0.00,0.00,0.00,58,N,S,3.00,N,S
22595,1361,1,3,44,NULL,30/07/2011,21/05/2007,A,2,4300,001,1,NULL,S,2000.00,0.00,0.00,0.00,58,N,S,2.83,N,S
17102,368,1,3,44,NULL,26/03/2010,22/05/2007,A,2,18864,002,1,NULL,S,20.00,0.00,0.00,0.00,58,N,S,2.95,N,S
4355,679,1,3,2,NULL,09/04/2007,23/05/2007,A,2,1558,001,1,NULL,S,280.00,0.00,0.00,0.00,58,N,S,3.18,N,S
17388,571,1,3,42,NULL,21/04/2010,24/05/2007,A,2,3654,001,1,NULL,S,1790.00,0.00,0.00,0.00,9,N,S,2.85,N,S
4724,53,1,3,2,NULL,14/05/2007,25/05/2007,A,2,1631,001,1,NULL,S,890.00,0.00,0.00,0.00,58,N,S,3.21,N,S
4858,679,1,3,2,NULL,22/05/2007,26/05/2007,A,2,1644,001,1,NULL,S,460.00,0.00,0.00,0.00,58,N,S,3.21,N,S
23578,306,1,3,46,NULL,29/10/2011,27/05/2007,A,2,4466,001,1,NULL,S,1500.00,0.00,0.00,0.00,58,N,S,2.80,N,S
5290,679,1,3,2,NULL,06/07/2007,28/05/2007,A,2,1722,001,1,NULL,S,1517.00,0.00,0.00,0.00,58,N,S,3.17,N,S
19759,571,1,3,42,NULL,03/12/2010,29/05/2007,A,2,3973,001,1,NULL,S,1790.00,0.00,0.00,0.00,9,N,S,2.85,N,S
19898,1361,1,3,45,NULL,14/12/2010,30/05/2007,A,2,3992,001,1,NULL,S,999.00,0.00,0.00,0.00,58,N,S,2.85,N,S
24406,306,1,3,46,NULL,02/01/2012,31/05/2007,A,2,4580,001,1,NULL,S,739.00,0.00,0.00,0.00,58,N,S,2.80,N,S
24408,489,1,3,46,NULL,03/01/2012,01/06/2007,A,2,4582,001,1,NULL,S,1440.00,0.00,0.00,0.00,58,N,S,2.80,N,S
24459,1326,1,3,46,NULL,09/01/2012,02/06/2007,A,2,4588,001,1,NULL,S,585.00,0.00,0.00,0.00,58,N,S,2.80,N,S
24609,1326,1,3,46,NULL,25/01/2012,03/06/2007,A,2,4614,001,1,NULL,S,345.00,0.00,0.00,0.00,58,N,S,4.00,N,S
6142,368,1,3,2,NULL,27/09/2007,04/06/2007,A,2,1862,001,1,NULL,S,2699.00,0.00,0.00,0.00,58,N,S,3.20,N,S
27994,368,1,3,29,NULL,26/11/2012,05/06/2007,A,2,5077,001,1,NULL,S,5839.00,0.00,0.00,0.00,58,N,S,2.75,N,S
6393,164,1,3,2,NULL,20/10/2007,06/06/2007,A,2,9333,002,1,NULL,S,1360.00,0.00,0.00,0.00,5,N,S,3.20,N,S
27410,1320,1,3,46,NULL,22/09/2012,07/06/2007,A,2,4999,001,1,NULL,S,1050.00,0.00,0.00,0.00,58,N,S,2.75,N,S
27607,1283,1,3,46,NULL,13/10/2012,08/06/2007,A,2,27910,002,1,NULL,S,1050.00,0.00,0.00,0.00,58,N,S,2.75,N,S
23666,1320,1,3,46,NULL,05/11/2011,09/06/2007,A,2,4478,001,1,NULL,S,1250.00,0.00,0.00,0.00,58,N,S,2.80,N,S
23760,951,1,3,42,NULL,15/11/2011,10/06/2007,A,2,24612,002,1,NULL,S,500.00,0.00,0.00,0.00,13,N,S,2.80,N,S
23833,1361,1,3,46,NULL,22/11/2011,11/06/2007,A,2,24668,002,1,NULL,S,0.00,0.00,0.00,0.00,58,N,S,2.80,N,S
24175,53,1,3,46,NULL,21/12/2011,12/06/2007,A,2,24957,002,1,NULL,S,0.00,0.00,0.00,0.00,58,N,S,2.80,N,S
24180,53,1,3,46,NULL,21/12/2011,13/06/2007,A,2,4561,001,1,NULL,S,3360.00,0.00,0.00,0.00,58,N,S,2.80,N,S
24457,1326,1,3,46,NULL,09/01/2012,14/06/2007,A,2,4586,001,1,NULL,S,100.00,0.00,0.00,0.00,58,N,S,2.80,N,S
25943,258,1,3,29,NULL,15/05/2012,15/06/2007,A,2,4819,001,1,NULL,S,1500.00,0.00,0.00,0.00,58,N,S,2.75,N,S
7945,368,1,3,2,NULL,29/02/2008,16/06/2007,A,2,2157,001,1,NULL,S,2029.00,0.00,0.00,0.00,58,N,S,3.10,N,S
27124,258,1,3,46,NULL,29/08/2012,17/06/2007,A,2,4956,001,1,NULL,S,4100.00,0.00,0.00,0.00,58,N,S,2.75,N,S
8358,258,1,3,2,NULL,05/04/2008,18/06/2007,A,2,2234,001,1,NULL,S,2429.00,0.00,0.00,0.00,58,N,S,3.00,N,S
29510,489,1,3,29,NULL,09/05/2013,19/06/2007,A,2,29592,002,1,NULL,S,2100.00,0.00,0.00,0.00,58,N,S,2.65,N,S
8510,1283,1,3,2,NULL,17/04/2008,20/06/2007,A,2,2263,001,1,NULL,S,1238.00,0.00,0.00,0.00,58,N,S,2.80,N,S
28985,331,1,3,50,NULL,05/03/2013,21/06/2007,A,2,29137,002,1,NULL,S,650.00,0.00,0.00,0.00,4,N,S,2.75,N,S
29867,1361,1,3,29,NULL,15/06/2013,22/06/2007,A,2,29913,002,1,NULL,S,1679.00,0.00,0.00,0.00,58,N,S,2.76,N,S
30053,258,1,3,29,NULL,05/07/2013,23/06/2007,A,2,5311,001,1,NULL,S,1789.00,0.00,0.00,0.00,58,N,S,2.80,N,S
30100,368,1,3,50,NULL,11/07/2013,24/06/2007,A,2,30113,002,1,NULL,S,2600.00,0.00,0.00,0.00,58,N,S,2.78,N,S
31034,489,1,3,29,NULL,25/10/2013,25/06/2007,A,2,5401,001,1,NULL,S,1000.00,0.00,0.00,0.00,58,N,S,2.80,N,S
30879,1361,1,3,42,NULL,04/10/2013,26/06/2007,A,2,30817,002,1,NULL,S,5400.00,0.00,0.00,0.00,58,N,S,2.80,N,S
10187,306,1,3,2,NULL,03/08/2008,27/06/2007,A,2,12974,002,1,NULL,S,150.00,0.00,0.00,0.00,58,N,S,3.05,N,S
9097,679,1,3,2,NULL,22/05/2008,28/06/2007,A,2,2381,001,1,NULL,S,2146.50,0.00,0.00,0.00,58,N,S,2.90,N,S
32678,368,1,3,52,NULL,26/05/2014,29/06/2007,A,2,5597,001,1,NULL,S,2840.00,0.00,0.00,0.00,58,N,S,3.00,N,S
32910,1361,1,3,29,NULL,25/06/2014,30/06/2007,A,2,32628,002,1,NULL,S,1889.00,0.00,0.00,0.00,58,N,S,3.00,N,S
32989,489,1,3,52,NULL,08/07/2014,01/07/2007,A,2,5647,001,1,NULL,S,1098.00,0.00,0.00,0.00,58,N,S,3.00,N,S
33137,1326,1,3,52,NULL,25/07/2014,02/07/2007,A,2,5661,001,1,NULL,S,530.00,0.00,0.00,0.00,30,N,S,3.00,N,S
33576,694,1,3,29,NULL,26/09/2014,03/07/2007,A,2,33210,002,1,NULL,S,1050.00,0.00,0.00,0.00,58,N,S,2.90,N,S
33589,489,1,3,29,NULL,29/09/2014,04/07/2007,A,2,33220,002,1,NULL,S,1098.00,0.00,0.00,0.00,58,N,S,2.90,N,S
34334,368,1,3,29,NULL,09/01/2015,05/07/2007,A,2,33853,002,1,NULL,S,2100.00,0.00,0.00,0.00,58,N,S,3.00,N,S
30920,258,1,3,29,NULL,08/10/2013,06/07/2007,A,2,5392,001,1,NULL,S,2000.00,0.00,0.00,0.00,58,N,S,2.80,N,S
30935,1361,1,3,29,NULL,10/10/2013,07/07/2007,A,2,30870,002,1,NULL,S,100.00,0.00,0.00,0.00,58,N,S,2.80,N,S
34952,1326,1,3,29,NULL,09/05/2015,08/07/2007,A,2,5925,001,1,NULL,S,679.00,0.00,0.00,0.00,69,N,S,3.15,N,S
10179,679,2,3,2,NULL,03/08/2008,09/07/2007,A,2,2539,001,1,NULL,S,829.00,0.00,0.00,0.00,58,N,S,3.05,N,S
16758,851,2,3,44,NULL,17/02/2010,10/07/2007,A,2,18563,002,1,NULL,S,20.00,0.00,0.00,0.00,9,N,S,2.95,N,S
17852,851,2,3,44,NULL,28/05/2010,11/07/2007,A,2,19506,002,1,NULL,S,30.00,0.00,0.00,0.00,9,N,S,2.90,N,S
17902,851,2,3,44,NULL,01/06/2010,12/07/2007,A,2,19547,002,1,NULL,S,65.00,0.00,0.00,0.00,9,N,S,2.90,N,S
17987,851,2,3,42,NULL,09/06/2010,13/07/2007,A,2,19619,002,1,NULL,S,75.00,0.00,0.00,0.00,9,N,S,2.90,N,S
10607,368,2,3,42,NULL,03/09/2008,14/07/2007,A,2,13318,002,1,NULL,S,120.00,0.00,0.00,0.00,4,N,S,3.00,N,S
11175,12,2,3,2,NULL,13/10/2008,15/07/2007,A,2,2731,001,1,NULL,S,620.00,0.00,0.00,0.00,58,N,S,3.21,N,S
11388,951,2,3,2,NULL,29/10/2008,16/07/2007,A,2,2776,001,1,NULL,S,340.00,0.00,0.00,0.00,4,N,S,3.21,N,S
11871,368,2,3,2,NULL,10/12/2008,17/07/2007,A,2,2862,001,1,NULL,S,1499.00,0.00,0.00,0.00,58,N,S,3.16,N,S
12268,851,2,3,2,NULL,03/01/2009,18/07/2007,A,2,14716,002,1,NULL,S,950.00,0.00,0.00,0.00,4,N,S,3.16,N,S
13271,851,2,3,43,NULL,20/04/2009,19/07/2007,A,2,3091,001,1,NULL,S,65.00,0.00,0.00,0.00,1,N,S,3.22,N,S
10242,1283,2,3,2,NULL,07/08/2008,20/07/2007,A,2,2551,001,1,NULL,S,135.00,0.00,0.00,0.00,58,N,S,3.05,N,S
32909,1361,2,3,29,NULL,25/06/2014,21/07/2007,A,2,32627,002,1,NULL,S,1530.00,0.00,0.00,0.00,58,N,S,3.00,N,S
33740,258,2,3,29,NULL,21/10/2014,22/07/2007,A,2,33354,002,1,NULL,S,1200.00,0.00,0.00,0.00,58,N,S,2.95,N,S
34073,1361,2,3,29,NULL,12/12/2014,23/07/2007,A,2,33624,002,1,NULL,S,1200.00,0.00,0.00,0.00,58,N,S,3.00,N,S
34396,1326,2,3,29,NULL,21/01/2015,24/07/2007,A,2,5842,001,1,NULL,S,1450.00,0.00,0.00,0.00,58,N,S,3.00,N,S
26886,851,2,3,46,NULL,07/08/2012,25/07/2007,A,2,27283,002,1,NULL,S,280.00,0.00,0.00,0.00,4,N,S,2.75,N,S
10711,368,2,3,42,NULL,09/09/2008,26/07/2007,A,2,2638,001,1,NULL,S,459.00,0.00,0.00,0.00,58,N,S,3.00,N,S
12240,1283,2,3,2,NULL,31/12/2008,27/07/2007,A,2,2899,001,1,NULL,S,1000.00,0.00,0.00,0.00,58,N,S,3.16,N,S
24231,951,2,3,46,NULL,23/12/2011,28/07/2007,A,2,25009,002,1,NULL,S,1000.00,0.00,0.00,0.00,13,N,S,2.80,N,S
15861,1393,2,3,44,NULL,05/12/2009,29/07/2007,A,2,17774,002,1,NULL,S,180.00,0.00,0.00,0.00,4,N,S,3.00,N,S
16350,124,2,3,44,NULL,04/01/2010,30/07/2007,A,2,18201,002,1,NULL,S,4.00,0.00,0.00,0.00,9,N,S,2.95,N,S
16453,851,2,3,44,NULL,14/01/2010,31/07/2007,A,2,18284,002,1,NULL,S,25.00,0.00,0.00,0.00,9,N,S,2.95,N,S
17576,164,2,3,44,NULL,07/05/2010,01/08/2007,A,2,19264,002,1,NULL,S,70.00,0.00,0.00,0.00,4,N,S,2.85,N,S
17739,851,2,3,44,NULL,18/05/2010,02/08/2007,A,2,19411,002,1,NULL,S,20.00,0.00,0.00,0.00,9,N,S,2.85,N,S
18004,851,2,3,44,NULL,11/06/2010,03/08/2007,A,2,19631,002,1,NULL,S,37.50,0.00,0.00,0.00,9,N,S,2.90,N,S
21244,851,2,3,44,NULL,12/04/2011,04/08/2007,A,2,22458,002,1,NULL,S,12.00,0.00,0.00,0.00,9,N,S,2.85,N,S
21252,851,2,3,44,NULL,12/04/2011,05/08/2007,A,2,22466,002,1,NULL,S,38.00,0.00,0.00,0.00,9,N,S,2.85,N,S
21996,851,2,3,44,NULL,12/06/2011,06/08/2007,A,5,13,002,1,NULL,S,20.00,0.00,0.00,0.00,9,N,S,2.83,N,S
22407,368,2,3,44,NULL,15/07/2011,07/08/2007,A,2,23488,002,1,NULL,S,300.00,0.00,0.00,0.00,58,N,S,2.83,N,S
23300,851,2,3,46,NULL,02/10/2011,08/08/2007,A,2,24228,002,1,NULL,S,50.00,0.00,0.00,0.00,9,N,S,2.80,N,S
23389,851,2,3,46,NULL,08/10/2011,09/08/2007,A,2,24300,002,1,NULL,S,65.00,0.00,0.00,0.00,9,N,S,2.80,N,S
23423,851,2,3,46,NULL,11/10/2011,10/08/2007,A,2,24329,002,1,NULL,S,25.00,0.00,0.00,0.00,9,N,S,2.80,N,S
23436,851,2,3,46,NULL,13/10/2011,11/08/2007,A,2,4446,001,1,NULL,S,138.00,0.00,0.00,0.00,9,N,S,2.80,N,S
25232,694,2,3,29,NULL,22/03/2012,12/08/2007,A,2,4707,001,1,NULL,S,85.00,0.00,0.00,0.00,16,N,S,2.75,N,S
25141,1326,2,3,29,NULL,14/03/2012,13/08/2007,A,2,4688,001,1,NULL,S,840.00,0.00,0.00,0.00,58,N,S,2.75,N,S
25372,124,2,3,29,NULL,02/04/2012,14/08/2007,A,2,25984,002,1,NULL,S,399.00,0.00,0.00,0.00,4,N,S,2.75,N,S
25540,851,2,3,29,NULL,19/04/2012,15/08/2007,A,2,26132,002,1,NULL,S,265.00,0.00,0.00,0.00,9,N,S,2.75,N,S
28315,1393,2,3,29,NULL,22/12/2012,16/08/2007,A,2,28524,002,1,NULL,S,1030.00,0.00,0.00,0.00,58,N,S,2.75,N,S
28503,489,2,3,29,NULL,05/01/2013,17/08/2007,A,2,5135,001,1,NULL,S,998.00,0.00,0.00,0.00,58,N,S,2.75,N,S
29045,489,2,3,50,NULL,13/03/2013,18/08/2007,A,2,29189,002,1,NULL,S,90.00,0.00,0.00,0.00,58,N,S,2.75,N,S
29263,571,2,3,50,NULL,11/04/2013,19/08/2007,A,2,5221,001,1,NULL,S,600.00,0.00,0.00,0.00,58,N,S,2.65,N,S
30507,951,2,3,29,NULL,17/08/2013,20/08/2007,A,2,30483,002,1,NULL,S,350.00,0.00,0.00,0.00,13,N,S,2.80,N,S
30913,368,2,3,52,NULL,07/10/2013,21/08/2007,A,2,30851,002,1,NULL,S,90.00,0.00,0.00,0.00,58,N,S,2.80,N,S
32176,368,2,3,52,NULL,15/03/2014,22/08/2007,A,2,5532,001,1,NULL,S,290.00,0.00,0.00,0.00,58,N,S,3.00,N,S
32355,489,2,3,54,NULL,11/04/2014,23/08/2007,A,2,5556,001,1,NULL,S,99.00,0.00,0.00,0.00,58,N,S,3.00,N,S
8887,368,2,3,2,NULL,09/05/2008,24/08/2007,A,2,2348,001,1,NULL,S,65.00,0.00,0.00,0.00,58,N,S,2.90,N,S
11172,12,2,3,2,NULL,13/10/2008,25/08/2007,A,2,2728,001,1,NULL,S,90.00,0.00,0.00,0.00,58,N,S,3.21,N,S
11174,12,2,3,2,NULL,13/10/2008,26/08/2007,A,2,2730,001,1,NULL,S,85.00,0.00,0.00,0.00,58,N,S,3.21,N,S
13075,1361,2,3,43,NULL,31/03/2009,27/08/2007,A,2,3048,001,1,NULL,S,170.00,0.00,0.00,0.00,58,N,S,3.22,N,S
13834,951,2,3,43,NULL,07/06/2009,28/08/2007,A,2,16006,002,1,NULL,S,839.00,0.00,0.00,0.00,8,N,S,3.05,N,S
15864,694,2,3,44,NULL,05/12/2009,29/08/2007,A,2,17777,002,1,NULL,S,2699.00,0.00,0.00,0.00,58,N,S,3.00,N,S
15929,164,2,3,44,NULL,10/12/2009,30/08/2007,A,2,17830,002,1,NULL,S,239.00,0.00,0.00,0.00,4,N,S,3.00,N,S
16201,571,2,3,44,NULL,24/12/2009,31/08/2007,A,2,18069,002,1,NULL,S,800.00,0.00,0.00,0.00,4,N,S,2.95,N,S
17414,571,2,3,44,NULL,23/04/2010,01/09/2007,A,2,3658,001,1,NULL,S,265.00,0.00,0.00,0.00,9,N,S,2.85,N,S
18104,951,2,3,44,NULL,22/06/2010,02/09/2007,A,2,3755,001,1,NULL,S,510.00,0.00,0.00,0.00,4,N,S,2.90,N,S
15487,851,2,3,44,NULL,31/10/2009,03/09/2007,A,2,3403,001,1,NULL,S,55.00,0.00,0.00,0.00,9,N,S,3.00,N,S
16388,851,2,3,44,NULL,07/01/2010,04/09/2007,A,2,3523,001,1,NULL,S,220.00,0.00,0.00,0.00,9,N,S,2.95,N,S
16692,851,2,3,44,NULL,10/02/2010,05/09/2007,A,2,18502,002,1,NULL,S,114.00,0.00,0.00,0.00,9,N,S,2.95,N,S
17321,851,2,3,44,NULL,14/04/2010,06/09/2007,A,2,19049,002,1,NULL,S,50.00,0.00,0.00,0.00,9,N,S,2.95,N,S
17714,851,2,3,44,NULL,15/05/2010,07/09/2007,A,2,19392,002,1,NULL,S,80.00,0.00,0.00,0.00,9,N,S,2.85,N,S
17814,851,2,3,44,NULL,25/05/2010,08/09/2007,A,2,19475,002,1,NULL,S,30.00,0.00,0.00,0.00,9,N,S,2.90,N,S
17829,851,2,3,44,NULL,26/05/2010,09/09/2007,A,2,19490,002,1,NULL,S,265.00,0.00,0.00,0.00,9,N,S,2.90,N,S
17865,851,2,3,44,NULL,29/05/2010,10/09/2007,A,2,19512,002,1,NULL,S,195.00,0.00,0.00,0.00,4,N,S,2.90,N,S
17880,1361,2,3,44,NULL,29/05/2010,11/09/2007,A,2,19527,002,1,NULL,S,5.00,0.00,0.00,0.00,4,N,S,2.90,N,S
18308,851,2,3,44,NULL,13/07/2010,12/09/2007,A,2,19893,002,1,NULL,S,20.00,0.00,0.00,0.00,9,N,S,2.90,N,S
18576,851,2,3,44,NULL,03/08/2010,13/09/2007,A,2,20135,002,1,NULL,S,85.00,0.00,0.00,0.00,9,N,S,2.90,N,S
18906,851,2,3,44,NULL,06/09/2010,14/09/2007,A,2,20429,002,1,NULL,S,20.00,0.00,0.00,0.00,9,N,S,2.90,N,S
18928,851,2,3,44,NULL,07/09/2010,15/09/2007,A,2,20445,002,1,NULL,S,30.00,0.00,0.00,0.00,9,N,S,2.90,N,S
21410,679,2,3,44,NULL,27/04/2011,16/09/2007,A,2,22608,002,1,NULL,S,99.00,0.00,0.00,0.00,4,N,S,2.85,N,S
22035,851,2,3,44,NULL,15/06/2011,17/09/2007,A,2,4237,001,1,NULL,S,637.00,0.00,0.00,0.00,9,N,S,2.83,N,S
22202,951,2,3,44,NULL,28/06/2011,18/09/2007,A,2,23299,002,1,NULL,S,169.00,0.00,0.00,0.00,13,N,S,2.83,N,S
22265,851,2,3,44,NULL,02/07/2011,19/09/2007,A,2,23358,002,1,NULL,S,5.00,0.00,0.00,0.00,9,N,S,2.83,N,S
22308,851,2,3,44,NULL,07/07/2011,20/09/2007,A,2,23401,002,1,NULL,S,70.00,0.00,0.00,0.00,9,N,S,2.83,N,S
20226,951,2,3,45,NULL,08/01/2011,21/09/2007,A,2,21581,002,1,NULL,S,0.00,0.00,0.00,0.00,58,N,S,2.83,N,S
25265,571,2,3,46,NULL,24/03/2012,22/09/2007,A,2,4716,001,1,NULL,S,1200.00,0.00,0.00,0.00,9,N,S,2.75,N,S
27514,951,2,3,46,NULL,04/10/2012,23/09/2007,A,2,27824,002,1,NULL,S,899.00,0.00,0.00,0.00,13,N,S,2.75,N,S
24533,951,2,3,46,NULL,17/01/2012,24/09/2007,A,2,25273,002,1,NULL,S,230.00,0.00,0.00,0.00,13,N,S,2.80,N,S
24534,951,2,3,46,NULL,17/01/2012,25/09/2007,A,2,25274,002,1,NULL,S,140.00,0.00,0.00,0.00,13,N,S,2.80,N,S
24535,951,2,3,46,NULL,17/01/2012,26/09/2007,A,2,25275,002,1,NULL,S,350.00,0.00,0.00,0.00,13,N,S,2.80,N,S
24892,124,2,3,46,NULL,23/02/2012,27/09/2007,A,2,4659,001,1,NULL,S,1380.00,0.00,0.00,0.00,9,N,S,2.75,N,S
26050,951,2,3,46,NULL,26/05/2012,28/09/2007,A,2,4830,001,1,NULL,S,280.00,0.00,0.00,0.00,13,N,S,2.75,N,S
26358,951,2,3,46,NULL,21/06/2012,29/09/2007,A,2,26823,002,1,NULL,S,0.00,0.00,0.00,0.00,13,N,S,2.75,N,S
26718,951,2,3,46,NULL,25/07/2012,30/09/2007,A,2,27126,002,1,NULL,S,90.00,0.00,0.00,0.00,13,N,S,2.75,N,S
28256,951,2,3,46,NULL,19/12/2012,01/10/2007,A,2,28471,002,1,NULL,S,200.00,0.00,0.00,0.00,13,N,S,2.75,N,S
28422,951,2,3,46,NULL,29/12/2012,02/10/2007,A,2,28620,002,1,NULL,S,149.00,0.00,0.00,0.00,13,N,S,2.75,N,S
31424,124,2,3,29,NULL,13/12/2013,03/10/2007,A,2,31306,002,1,NULL,S,149.00,0.00,0.00,0.00,9,N,S,2.85,N,S
31483,1326,2,3,29,NULL,19/12/2013,04/10/2007,A,2,5457,001,1,NULL,S,1681.00,0.00,0.00,0.00,58,N,S,2.85,N,S
32854,489,2,3,29,NULL,17/06/2014,05/10/2007,A,2,32580,002,1,NULL,S,800.00,0.00,0.00,0.00,58,N,S,3.00,N,S
33116,1361,2,3,29,NULL,24/07/2014,06/10/2007,A,2,32805,002,1,NULL,S,269.00,0.00,0.00,0.00,58,N,S,3.00,N,S
28841,489,2,3,29,NULL,14/02/2013,07/10/2007,A,2,5162,001,1,NULL,S,880.00,0.00,0.00,0.00,58,N,S,2.75,N,S
28860,489,2,3,29,NULL,16/02/2013,08/10/2007,A,2,5167,001,1,NULL,S,540.00,0.00,0.00,0.00,58,N,S,2.75,N,S
29451,851,2,3,29,NULL,03/05/2013,09/10/2007,A,2,29539,002,1,NULL,S,96.00,0.00,0.00,0.00,9,N,S,2.65,N,S
29509,489,2,3,29,NULL,09/05/2013,10/10/2007,A,2,29591,002,1,NULL,S,1520.00,0.00,0.00,0.00,58,N,S,2.65,N,S
32335,951,2,3,29,NULL,09/04/2014,11/10/2007,A,2,32131,002,1,NULL,S,190.00,0.00,0.00,0.00,13,N,S,3.00,N,S
32911,124,2,3,29,NULL,25/06/2014,12/10/2007,A,2,5632,001,1,NULL,S,18.00,0.00,0.00,0.00,58,N,S,3.00,N,S
32559,1326,2,3,52,NULL,10/05/2014,13/10/2007,A,2,5586,001,1,NULL,S,598.00,0.00,0.00,0.00,30,N,S,3.00,N,S
12473,1155,2,3,1,NULL,28/01/2009,14/10/2007,A,2,14880,002,1,NULL,S,880.00,0.00,0.00,0.00,4,N,S,3.18,N,S
15099,1320,2,3,44,NULL,21/09/2009,15/10/2007,A,2,17115,002,1,NULL,S,378.00,0.00,0.00,0.00,1,N,S,3.01,N,S
17008,53,2,3,44,NULL,15/03/2010,16/10/2007,A,2,3594,001,1,NULL,S,2800.00,0.00,0.00,0.00,1,N,S,2.95,N,S
18815,571,2,3,44,NULL,27/08/2010,17/10/2007,A,2,20343,002,1,NULL,S,189.00,0.00,0.00,0.00,1,N,S,2.90,N,S
21270,571,2,3,44,NULL,14/04/2011,18/10/2007,A,2,22483,002,1,NULL,S,250.00,0.00,0.00,0.00,1,N,S,2.85,N,S
26314,571,2,3,46,NULL,16/06/2012,19/10/2007,A,2,4868,001,1,NULL,S,179.00,0.00,0.00,0.00,1,N,S,2.75,N,S
27431,571,2,3,46,NULL,25/09/2012,20/10/2007,A,2,27752,002,1,NULL,S,800.00,0.00,0.00,0.00,1,N,S,2.75,N,S
32346,571,2,3,29,NULL,11/04/2014,21/10/2007,A,2,32139,002,1,NULL,S,670.00,0.00,0.00,0.00,1,N,S,3.00,N,S
342,306,2,3,2,NULL,05/01/2006,22/10/2007,A,2,4116,002,1,NULL,S,760.00,0.00,0.00,0.00,1,N,S,3.45,N,S
5399,951,2,3,2,NULL,20/07/2007,23/10/2007,A,2,1741,001,1,NULL,S,400.00,0.00,0.00,0.00,1,N,S,3.17,N,S
472,416,2,3,2,NULL,23/01/2006,24/10/2007,A,2,1002,001,1,NULL,S,80.00,0.00,0.00,0.00,1,N,S,3.45,N,S
6692,851,2,3,2,NULL,20/11/2007,25/10/2007,A,2,1965,001,1,NULL,S,176.00,0.00,0.00,0.00,1,N,S,3.10,N,S
8874,1361,2,3,2,NULL,08/05/2008,26/10/2007,A,2,11846,002,1,NULL,S,80.00,0.00,0.00,0.00,1,N,S,2.90,N,S
9579,1361,2,3,2,NULL,29/06/2008,27/10/2007,A,2,12452,002,1,NULL,S,1230.00,0.00,0.00,0.00,1,N,S,3.05,N,S
9622,851,2,3,41,NULL,01/07/2008,28/10/2007,A,2,2457,001,1,NULL,S,619.00,0.00,0.00,0.00,1,N,S,3.05,N,S
9623,851,2,3,41,NULL,01/07/2008,29/10/2007,A,2,2458,001,1,NULL,S,135.00,0.00,0.00,0.00,1,N,S,3.05,N,S
616,489,2,3,2,NULL,11/02/2006,30/10/2007,A,2,1017,001,1,NULL,S,1560.00,0.00,0.00,0.00,1,N,S,3.35,N,S
827,679,1,3,2,NULL,16/03/2006,31/10/2007,A,2,4571,002,1,NULL,S,1249.00,0.00,0.00,0.00,1,N,S,3.35,N,S
12465,258,1,3,42,NULL,26/01/2009,01/11/2007,A,2,2940,001,1,NULL,S,498.00,0.00,0.00,0.00,1,N,S,3.18,N,S
12984,1320,1,3,43,NULL,24/03/2009,02/11/2007,A,2,3024,001,1,NULL,S,329.00,0.00,0.00,0.00,1,N,S,3.22,N,S
890,694,1,3,2,NULL,30/03/2006,03/11/2007,A,2,4625,002,1,NULL,S,1599.00,0.00,0.00,0.00,1,N,S,3.35,N,S
13269,571,1,3,43,NULL,20/04/2009,04/11/2007,A,2,3089,001,1,NULL,S,90.00,0.00,0.00,0.00,1,N,S,3.22,N,S
618,331,1,3,2,NULL,12/02/2006,05/11/2007,A,2,1019,001,2,NULL,S,790.00,0.00,0.00,0.00,1,N,S,3.35,N,S
985,679,1,3,2,NULL,11/04/2006,06/11/2007,A,2,4709,002,1,NULL,S,0.00,0.00,0.00,0.00,1,N,S,3.35,N,S
14713,851,1,3,42,NULL,15/08/2009,07/11/2007,A,2,3290,001,1,NULL,S,55.00,0.00,0.00,0.00,1,N,S,3.01,N,S
14894,951,1,3,42,NULL,01/09/2009,08/11/2007,A,2,3316,001,1,NULL,S,200.00,0.00,0.00,0.00,1,N,S,3.01,N,S
308,258,1,3,2,NULL,31/12/2005,09/11/2007,A,2,699,001,1,NULL,S,359.00,0.00,0.00,0.00,1,N,S,3.45,N,S
14975,851,1,3,42,NULL,07/09/2009,10/11/2007,A,2,3326,001,1,NULL,S,56.00,0.00,0.00,0.00,1,N,S,3.01,N,S
15014,851,1,3,42,NULL,11/09/2009,11/11/2007,A,2,3331,001,1,NULL,S,174.00,0.00,0.00,0.00,1,N,S,3.01,N,S
847,694,1,3,2,NULL,22/03/2006,12/11/2007,A,2,4587,002,1,NULL,S,699.00,0.00,0.00,0.00,1,N,S,3.35,N,S
17266,571,1,3,44,NULL,09/04/2010,13/11/2007,A,2,3633,001,1,NULL,S,9277.00,0.00,0.00,0.00,1,N,S,2.95,N,S
1210,53,1,3,2,NULL,15/05/2006,14/11/2007,A,2,1077,001,1,NULL,S,2759.00,0.00,0.00,0.00,1,N,S,3.35,N,S
1536,679,1,3,2,NULL,26/06/2006,15/11/2007,A,2,5220,002,1,NULL,S,680.00,0.00,0.00,0.00,1,N,S,3.35,N,S
1817,1320,1,3,2,NULL,31/07/2006,16/11/2007,A,2,5485,002,1,NULL,S,1539.00,0.00,0.00,0.00,1,N,S,3.35,N,S
2216,368,1,3,2,NULL,08/09/2006,17/11/2007,A,2,5824,002,1,NULL,S,1029.00,0.00,0.00,0.00,1,N,S,3.30,N,S
3460,1320,1,3,2,NULL,12/01/2007,18/11/2007,A,2,1406,001,1,NULL,S,2200.00,0.00,0.00,0.00,1,N,S,3.30,N,S
18353,124,1,3,42,NULL,17/07/2010,19/11/2007,A,2,19935,002,1,NULL,S,30.00,0.00,0.00,0.00,1,N,S,2.90,N,S
1305,489,1,3,2,NULL,24/05/2006,20/11/2007,A,2,1088,001,1,NULL,S,2160.00,0.00,0.00,0.00,1,N,S,3.35,N,S
13133,571,1,3,43,NULL,04/04/2009,21/11/2007,A,2,3057,001,2,NULL,S,762.00,0.00,0.00,0.00,1,N,S,3.22,N,S
3251,489,1,3,2,NULL,27/12/2006,22/11/2007,A,2,1372,001,1,NULL,S,3214.14,0.00,0.00,0.00,1,N,S,3.30,N,S
1444,851,1,3,2,NULL,13/06/2006,23/11/2007,A,2,1103,001,1,NULL,S,145.00,0.00,0.00,0.00,1,N,S,3.35,N,S
1445,851,1,3,2,NULL,13/06/2006,24/11/2007,A,2,1104,001,1,NULL,S,1040.20,0.00,0.00,0.00,1,N,S,3.35,N,S
13800,851,1,3,43,NULL,04/06/2009,25/11/2007,A,2,3184,001,1,NULL,S,1650.00,0.00,0.00,0.00,1,N,S,3.05,N,S
1551,1155,1,3,2,NULL,27/06/2006,26/11/2007,A,2,5233,002,1,NULL,S,320.00,0.00,0.00,0.00,1,N,S,3.35,N,S
16657,571,1,3,44,NULL,05/02/2010,27/11/2007,A,2,3552,001,1,NULL,S,530.00,0.00,0.00,0.00,1,N,S,2.95,N,S
17636,571,1,3,44,NULL,08/05/2010,28/11/2007,A,2,3679,001,1,NULL,S,4099.00,0.00,0.00,0.00,1,N,S,2.85,N,S
17898,571,1,3,44,NULL,31/05/2010,29/11/2007,A,2,3721,001,1,NULL,S,1794.00,0.00,0.00,0.00,1,N,S,2.90,N,S
19393,951,1,3,44,NULL,21/10/2010,30/11/2007,A,2,3925,001,1,NULL,S,1399.00,0.00,0.00,0.00,1,N,S,2.85,N,S
21211,571,1,3,44,NULL,08/04/2011,01/12/2007,A,2,4151,001,1,NULL,S,987.00,0.00,0.00,0.00,1,N,S,2.82,N,S
1760,1283,1,3,2,NULL,24/07/2006,02/12/2007,A,2,1135,001,1,NULL,S,529.00,0.00,0.00,0.00,1,N,S,3.35,N,S
17662,851,1,3,44,NULL,10/05/2010,03/12/2007,A,2,19348,002,1,NULL,S,0.00,0.00,0.00,0.00,1,N,S,2.85,N,S
19291,12,1,3,44,NULL,12/10/2010,04/12/2007,A,2,20757,002,1,NULL,S,30.00,0.00,0.00,0.00,1,N,S,2.85,N,S
1940,1393,1,3,2,NULL,09/08/2006,05/12/2007,A,2,1151,001,1,NULL,S,220.00,0.00,0.00,0.00,1,N,S,3.35,N,S
23085,951,1,3,42,NULL,09/09/2011,06/12/2007,A,2,24057,002,1,NULL,S,30.00,0.00,0.00,0.00,1,N,S,2.80,N,S
2041,1361,1,3,2,NULL,21/08/2006,07/12/2007,A,2,5685,002,1,NULL,S,4000.00,0.00,0.00,0.00,1,N,S,3.30,N,S
2042,1361,1,3,2,NULL,21/08/2006,08/12/2007,A,2,5686,002,1,NULL,S,0.00,0.00,0.00,0.00,1,N,S,3.30,N,S
2112,851,1,3,2,NULL,28/08/2006,09/12/2007,A,2,1177,001,1,NULL,S,25.00,0.00,0.00,0.00,1,N,S,3.30,N,S
2113,851,1,3,2,NULL,28/08/2006,10/12/2007,A,2,1178,001,1,NULL,S,435.00,0.00,0.00,0.00,1,N,S,3.30,N,S
27923,124,1,3,29,NULL,16/11/2012,11/12/2007,A,2,28186,002,1,NULL,S,285.00,0.00,0.00,0.00,1,N,S,2.75,N,S
2314,258,1,3,2,NULL,22/09/2006,12/12/2007,A,2,1211,001,1,NULL,S,125.00,0.00,0.00,0.00,1,N,S,3.30,N,S
31147,124,1,3,29,NULL,11/11/2013,13/12/2007,A,2,31061,002,1,NULL,S,15.00,0.00,0.00,0.00,1,N,S,2.80,N,S
30885,1361,1,3,42,NULL,04/10/2013,14/12/2007,A,2,30823,002,1,NULL,S,0.00,0.00,0.00,0.00,1,N,S,2.80,N,S
33561,851,1,3,29,NULL,24/09/2014,15/12/2007,A,2,5712,001,1,NULL,S,187.00,0.00,0.00,0.00,1,N,S,2.90,N,S
33563,851,1,3,29,NULL,24/09/2014,16/12/2007,A,2,5714,001,1,NULL,S,360.00,0.00,0.00,0.00,1,N,S,2.90,N,S
33564,851,1,3,29,NULL,24/09/2014,17/12/2007,A,2,5715,001,1,NULL,S,885.00,0.00,0.00,0.00,1,N,S,2.90,N,S
190,164,1,3,2,NULL,24/12/2005,18/12/2007,A,2,3969,002,1,NULL,S,959.00,0.00,0.00,0.00,1,N,S,3.45,N,S
377,331,1,3,2,NULL,09/01/2006,19/12/2007,A,2,702,001,1,NULL,S,999.00,0.00,0.00,0.00,1,N,S,3.45,N,S
2493,124,1,3,2,NULL,10/10/2006,20/12/2007,A,2,1241,001,1,NULL,S,22.00,0.00,0.00,0.00,1,N,S,3.30,N,S
415,368,1,3,2,NULL,16/01/2006,21/12/2007,A,2,4184,002,1,NULL,S,275.00,0.00,0.00,0.00,1,N,S,3.45,N,S
570,124,1,3,2,NULL,07/02/2006,22/12/2007,A,2,1014,001,2,NULL,S,910.86,0.00,0.00,0.00,1,N,S,3.35,N,S
19927,951,1,3,42,NULL,17/12/2010,23/12/2007,A,2,3998,001,1,NULL,S,2950.00,0.00,0.00,0.00,1,N,S,2.85,N,S
1036,258,1,3,2,NULL,22/04/2006,24/12/2007,A,2,1067,001,1,NULL,S,959.00,0.00,0.00,0.00,1,N,S,3.35,N,S
5670,571,1,3,2,NULL,07/08/2007,25/12/2007,A,2,1776,001,1,NULL,S,1699.00,0.00,0.00,0.00,1,N,S,3.19,N,S
2749,851,1,3,2,NULL,12/11/2006,26/12/2007,A,2,1292,001,1,NULL,S,10.00,0.00,0.00,0.00,1,N,S,3.30,N,S
1144,694,1,3,2,NULL,08/05/2006,27/12/2007,A,2,4860,002,1,NULL,S,299.00,0.00,0.00,0.00,1,N,S,3.35,N,S
1249,951,1,3,2,NULL,17/05/2006,28/12/2007,A,2,1080,001,1,NULL,S,645.00,0.00,0.00,0.00,1,N,S,3.35,N,S
1309,306,1,3,2,NULL,25/05/2006,29/12/2007,A,2,5014,002,1,NULL,S,450.00,0.00,0.00,0.00,1,N,S,3.35,N,S
1827,1326,1,3,2,NULL,31/07/2006,30/12/2007,A,2,5495,002,1,NULL,S,570.00,0.00,0.00,0.00,1,N,S,3.35,N,S
1883,53,1,3,2,NULL,04/08/2006,31/12/2007,A,2,1141,001,1,NULL,S,501.00,0.00,0.00,0.00,1,N,S,3.35,N,S
2078,489,1,3,2,NULL,24/08/2006,01/01/2008,A,2,1169,001,1,NULL,S,3285.20,0.00,0.00,0.00,1,N,S,3.30,N,S
2079,489,1,3,2,NULL,24/08/2006,02/01/2008,A,2,1170,001,1,NULL,S,1633.95,0.00,0.00,0.00,1,N,S,3.30,N,S
2202,951,1,3,2,NULL,08/09/2006,03/01/2008,A,2,1197,001,1,NULL,S,949.00,0.00,0.00,0.00,1,N,S,3.30,N,S
2454,571,1,3,2,NULL,06/10/2006,04/01/2008,A,2,1230,001,1,NULL,S,1368.00,0.00,0.00,0.00,1,N,S,3.30,N,S
3572,1361,1,3,2,NULL,22/01/2007,05/01/2008,A,2,6989,002,1,NULL,S,34.00,0.00,0.00,0.00,1,N,S,3.25,N,S
3857,489,1,3,2,NULL,19/02/2007,06/01/2008,A,2,1474,001,1,NULL,S,2619.00,0.00,0.00,0.00,1,N,S,3.25,N,S
3943,851,1,3,2,NULL,28/02/2007,07/01/2008,A,2,1488,001,1,NULL,S,12.00,0.00,0.00,0.00,1,N,S,3.23,N,S
14755,571,1,3,42,NULL,19/08/2009,08/01/2008,A,2,3296,001,1,NULL,S,1310.00,0.00,0.00,0.00,1,N,S,3.01,N,S
4419,851,1,3,2,NULL,17/04/2007,09/01/2008,A,2,1580,001,1,NULL,S,20.00,0.00,0.00,0.00,1,N,S,3.18,N,S
3630,951,1,3,2,NULL,27/01/2007,10/01/2008,A,2,1428,001,1,NULL,S,928.00,0.00,0.00,0.00,1,N,S,3.25,N,S
3738,258,1,3,2,NULL,06/02/2007,11/01/2008,A,2,1447,001,1,NULL,S,959.00,0.00,0.00,0.00,1,N,S,3.25,N,S
15912,1320,1,3,42,NULL,09/12/2009,12/01/2008,A,2,3460,001,1,NULL,S,1150.00,0.00,0.00,0.00,1,N,S,3.00,N,S
4681,851,1,3,2,NULL,08/05/2007,13/01/2008,A,2,1620,001,1,NULL,S,20.00,0.00,0.00,0.00,1,N,S,3.21,N,S
3944,489,1,3,2,NULL,28/02/2007,14/01/2008,A,2,1489,001,1,NULL,S,8970.00,0.00,0.00,0.00,1,N,S,3.23,N,S
16621,1320,1,3,42,NULL,01/02/2010,15/01/2008,A,2,3550,001,1,NULL,S,2550.00,0.00,0.00,0.00,1,N,S,2.95,N,S
5031,851,1,3,2,NULL,09/06/2007,16/01/2008,A,2,1673,001,1,NULL,S,30.00,0.00,0.00,0.00,1,N,S,3.21,N,S
4385,1320,1,3,2,NULL,12/04/2007,17/01/2008,A,2,1567,001,1,NULL,S,109.00,0.00,0.00,0.00,1,N,S,3.18,N,S
4387,851,1,3,2,NULL,12/04/2007,18/01/2008,A,2,1569,001,1,NULL,S,25.00,0.00,0.00,0.00,1,N,S,3.18,N,S
4388,851,1,3,2,NULL,12/04/2007,19/01/2008,A,2,1570,001,1,NULL,S,100.00,0.00,0.00,0.00,1,N,S,3.18,N,S
4583,1361,1,3,2,NULL,02/05/2007,20/01/2008,A,2,7819,002,1,NULL,S,360.00,0.00,0.00,0.00,1,N,S,3.21,N,S
5054,851,1,3,2,NULL,12/06/2007,21/01/2008,A,2,1675,001,1,NULL,S,108.00,0.00,0.00,0.00,1,N,S,3.21,N,S
8040,571,1,3,2,NULL,08/03/2008,22/01/2008,A,2,2170,001,1,NULL,S,2458.00,0.00,0.00,0.00,1,N,S,3.10,N,S
5884,951,1,3,2,NULL,30/08/2007,23/01/2008,A,2,1823,001,1,NULL,S,135.00,0.00,0.00,0.00,1,N,S,3.19,N,S
6087,851,1,3,2,NULL,18/09/2007,24/01/2008,A,2,1847,001,1,NULL,S,61.00,0.00,0.00,0.00,1,N,S,3.19,N,S
6141,851,1,3,2,NULL,26/09/2007,25/01/2008,A,2,1861,001,1,NULL,S,126.00,0.00,0.00,0.00,1,N,S,3.20,N,S
6143,851,1,3,2,NULL,27/09/2007,26/01/2008,A,2,1863,001,1,NULL,S,311.00,0.00,0.00,0.00,1,N,S,3.20,N,S
21729,951,1,3,42,NULL,18/05/2011,27/01/2008,A,2,4191,001,1,NULL,S,1950.00,0.00,0.00,0.00,1,N,S,2.85,N,S
6315,851,1,3,2,NULL,12/10/2007,28/01/2008,A,2,1893,001,1,NULL,S,45.00,0.00,0.00,0.00,1,N,S,3.20,N,S
6586,851,1,3,2,NULL,10/11/2007,29/01/2008,A,2,1945,001,1,NULL,S,32.00,0.00,0.00,0.00,1,N,S,3.20,N,S
6621,124,1,3,2,NULL,13/11/2007,30/01/2008,A,2,9523,002,1,NULL,S,17.00,0.00,0.00,0.00,1,N,S,3.20,N,S
6646,571,1,3,2,NULL,16/11/2007,31/01/2008,A,2,1954,001,1,NULL,S,109.00,0.00,0.00,0.00,1,N,S,3.10,N,S
6712,1320,1,3,2,NULL,21/11/2007,01/02/2008,A,2,1966,001,1,NULL,S,48.00,0.00,0.00,0.00,1,N,S,3.10,N,S
6715,851,1,3,2,NULL,22/11/2007,02/02/2008,A,2,1969,001,1,NULL,S,170.00,0.00,0.00,0.00,1,N,S,3.10,N,S
23043,571,1,3,42,NULL,05/09/2011,03/02/2008,A,2,4367,001,1,NULL,S,900.00,0.00,0.00,0.00,1,N,S,2.80,N,S
6770,851,1,3,2,NULL,28/11/2007,04/02/2008,A,2,1980,001,1,NULL,S,60.00,0.00,0.00,0.00,1,N,S,3.10,N,S
7523,851,1,3,2,NULL,26/01/2008,05/02/2008,A,2,2083,001,1,NULL,S,400.00,0.00,0.00,0.00,1,N,S,3.10,N,S
24057,489,1,3,46,NULL,13/12/2011,06/02/2008,A,2,4540,001,1,NULL,S,2175.00,0.00,0.00,0.00,1,N,S,2.80,N,S
7138,1361,1,3,2,NULL,24/12/2007,07/02/2008,A,2,9957,002,1,NULL,S,330.00,0.00,0.00,0.00,1,N,S,3.10,N,S
7222,851,1,3,2,NULL,28/12/2007,08/02/2008,A,2,2038,001,1,NULL,S,1423.00,0.00,0.00,0.00,1,N,S,3.10,N,S
7225,851,1,3,2,NULL,29/12/2007,09/02/2008,A,2,2041,001,1,NULL,S,720.00,0.00,0.00,0.00,1,N,S,3.10,N,S
7269,851,1,3,2,NULL,31/12/2007,10/02/2008,A,2,2053,001,1,NULL,S,100.00,0.00,0.00,0.00,1,N,S,3.10,N,S
24891,124,1,3,46,NULL,23/02/2012,11/02/2008,A,2,4658,001,1,NULL,S,390.00,0.00,0.00,0.00,1,N,S,2.75,N,S
7595,851,1,3,2,NULL,31/01/2008,12/02/2008,A,2,2089,001,1,NULL,S,328.00,0.00,0.00,0.00,1,N,S,3.10,N,S
7596,1320,1,3,2,NULL,31/01/2008,13/02/2008,A,2,2090,001,1,NULL,S,340.00,0.00,0.00,0.00,1,N,S,3.10,N,S
7615,851,1,3,2,NULL,04/02/2008,14/02/2008,A,2,2101,001,1,NULL,S,135.00,0.00,0.00,0.00,1,N,S,3.10,N,S
7642,1361,1,3,2,NULL,06/02/2008,15/02/2008,A,2,10843,002,1,NULL,S,300.00,0.00,0.00,0.00,1,N,S,3.10,N,S
7714,571,1,3,2,NULL,12/02/2008,16/02/2008,A,2,2112,001,1,NULL,S,200.00,0.00,0.00,0.00,1,N,S,3.10,N,S
7870,851,1,3,2,NULL,26/02/2008,17/02/2008,A,2,2150,001,1,NULL,S,160.00,0.00,0.00,0.00,1,N,S,3.10,N,S
7955,851,1,3,2,NULL,01/03/2008,18/02/2008,A,2,2160,001,1,NULL,S,114.00,0.00,0.00,0.00,1,N,S,3.10,N,S
8214,851,1,3,2,NULL,24/03/2008,19/02/2008,A,2,2195,001,1,NULL,S,18.00,0.00,0.00,0.00,1,N,S,3.10,N,S
8237,851,1,3,2,NULL,26/03/2008,20/02/2008,A,2,2206,001,1,NULL,S,116.00,0.00,0.00,0.00,1,N,S,3.10,N,S
8408,851,1,3,2,NULL,10/04/2008,21/02/2008,A,2,2247,001,1,NULL,S,230.00,0.00,0.00,0.00,1,N,S,3.00,N,S
8454,489,1,3,2,NULL,11/04/2008,22/02/2008,A,2,2248,001,1,NULL,S,2078.00,0.00,0.00,0.00,1,N,S,3.00,N,S
8487,851,1,3,2,NULL,14/04/2008,23/02/2008,A,2,2255,001,1,NULL,S,210.00,0.00,0.00,0.00,1,N,S,3.00,N,S
8508,851,1,3,2,NULL,17/04/2008,24/02/2008,A,2,2261,001,1,NULL,S,130.00,0.00,0.00,0.00,1,N,S,2.80,N,S
8581,951,1,3,2,NULL,22/04/2008,25/02/2008,A,2,2273,001,1,NULL,S,340.00,0.00,0.00,0.00,1,N,S,2.80,N,S
8617,951,1,3,2,NULL,23/04/2008,26/02/2008,A,2,2279,001,1,NULL,S,929.00,0.00,0.00,0.00,1,N,S,2.80,N,S
8697,1320,1,3,2,NULL,30/04/2008,27/02/2008,A,2,2310,001,1,NULL,S,615.00,0.00,0.00,0.00,1,N,S,2.90,N,S
8851,851,1,3,2,NULL,07/05/2008,28/02/2008,A,2,2340,001,1,NULL,S,368.00,0.00,0.00,0.00,1,N,S,2.90,N,S
8925,164,1,3,2,NULL,11/05/2008,29/02/2008,A,2,2362,001,1,NULL,S,65.00,0.00,0.00,0.00,1,N,S,2.90,N,S
8616,951,1,3,2,NULL,23/04/2008,01/03/2008,A,2,2278,001,1,NULL,S,1860.00,0.00,0.00,0.00,1,N,S,2.80,N,S
9218,851,1,3,41,NULL,30/05/2008,02/03/2008,A,2,2398,001,1,NULL,S,400.00,0.00,0.00,0.00,1,N,S,2.90,N,S
9568,124,1,3,2,NULL,29/06/2008,03/03/2008,A,2,2446,001,1,NULL,S,40.00,0.00,0.00,0.00,1,N,S,3.05,N,S
9621,851,1,3,41,NULL,01/07/2008,04/03/2008,A,2,2456,001,1,NULL,S,215.00,0.00,0.00,0.00,1,N,S,3.05,N,S
9997,1361,1,3,2,NULL,23/07/2008,05/03/2008,A,2,12812,002,1,NULL,S,1350.00,0.00,0.00,0.00,1,N,S,3.05,N,S
10042,124,1,3,2,NULL,26/07/2008,06/03/2008,A,2,2518,001,1,NULL,S,40.00,0.00,0.00,0.00,1,N,S,3.05,N,S
10088,124,1,3,2,NULL,30/07/2008,07/03/2008,A,2,2525,001,1,NULL,S,738.00,0.00,0.00,0.00,1,N,S,3.05,N,S
10129,851,1,3,2,NULL,31/07/2008,08/03/2008,A,2,2529,001,1,NULL,S,59.00,0.00,0.00,0.00,1,N,S,3.05,N,S
10416,1361,1,3,2,NULL,19/08/2008,09/03/2008,A,2,13163,002,1,NULL,S,460.00,0.00,0.00,0.00,1,N,S,3.00,N,S
9,12,1,3,2,NULL,05/12/2005,10/03/2008,A,2,3789,002,1,NULL,S,95.00,0.00,0.00,0.00,1,N,S,3.38,N,S
57,53,1,3,2,NULL,12/12/2005,11/03/2008,A,2,3842,002,1,NULL,S,0.00,0.00,0.00,0.00,1,N,S,3.38,N,S
9397,1155,1,3,2,NULL,13/06/2008,12/03/2008,A,2,12296,002,1,NULL,S,5500.00,0.00,0.00,0.00,1,N,S,2.90,N,S
571,489,1,3,2,NULL,08/02/2006,13/03/2008,A,2,1015,001,1,NULL,S,570.00,0.00,0.00,0.00,1,N,S,3.35,N,S
1555,1155,1,3,2,NULL,28/06/2006,14/03/2008,A,2,5237,002,1,NULL,S,150.00,0.00,0.00,0.00,1,N,S,3.35,N,S
2133,851,1,3,2,NULL,02/09/2006,15/03/2008,A,2,1185,001,1,NULL,S,172.00,0.00,0.00,0.00,1,N,S,3.30,N,S
2170,851,1,3,2,NULL,06/09/2006,16/03/2008,A,2,1193,001,1,NULL,S,436.24,0.00,0.00,0.00,1,N,S,3.30,N,S
2301,1320,1,3,2,NULL,20/09/2006,17/03/2008,A,2,5905,002,1,NULL,S,62.00,0.00,0.00,0.00,1,N,S,3.30,N,S
11337,124,1,3,2,NULL,25/10/2008,18/03/2008,A,2,13907,002,1,NULL,S,13.00,0.00,0.00,0.00,1,N,S,3.21,N,S
11451,1361,1,3,2,NULL,05/11/2008,19/03/2008,A,2,13999,002,1,NULL,S,0.00,0.00,0.00,0.00,1,N,S,3.21,N,S
12340,851,1,3,2,NULL,10/01/2009,20/03/2008,A,2,14771,002,1,NULL,S,60.00,0.00,0.00,0.00,1,N,S,3.18,N,S
12363,851,1,3,42,NULL,15/01/2009,21/03/2008,A,2,14791,002,1,NULL,S,50.00,0.00,0.00,0.00,1,N,S,3.18,N,S
12651,571,1,3,43,NULL,17/02/2009,22/03/2008,A,2,2962,001,1,NULL,S,245.00,0.00,0.00,0.00,1,N,S,3.25,N,S
12895,851,1,3,42,NULL,14/03/2009,23/03/2008,A,2,15245,002,1,NULL,S,0.00,0.00,0.00,0.00,1,N,S,3.28,N,S
12982,1320,1,3,43,NULL,23/03/2009,24/03/2008,A,2,3022,001,1,NULL,S,4347.00,0.00,0.00,0.00,1,N,S,3.22,N,S
13697,851,1,3,42,NULL,26/05/2009,25/03/2008,A,2,3159,001,1,NULL,S,535.00,0.00,0.00,0.00,1,N,S,3.05,N,S
11437,951,1,3,2,NULL,03/11/2008,26/03/2008,A,2,2791,001,1,NULL,S,880.00,0.00,0.00,0.00,1,N,S,3.21,N,S
12731,851,1,3,43,NULL,24/02/2009,27/03/2008,A,2,15109,002,1,NULL,S,60.00,0.00,0.00,0.00,1,N,S,3.28,N,S
12983,1320,1,3,43,NULL,24/03/2009,28/03/2008,A,2,3023,001,1,NULL,S,0.00,0.00,0.00,0.00,1,N,S,3.22,N,S
13321,851,1,3,43,NULL,24/04/2009,29/03/2008,A,2,3105,001,1,NULL,S,52.00,0.00,0.00,0.00,1,N,S,3.22,N,S
14649,679,1,3,43,NULL,11/08/2009,30/03/2008,A,2,16728,002,1,NULL,S,0.00,0.00,0.00,0.00,1,N,S,3.03,N,S
26630,951,1,3,29,NULL,17/07/2012,31/03/2008,A,2,27044,002,1,NULL,S,29.00,0.00,0.00,0.00,1,N,S,2.75,N,S
28000,368,1,3,29,NULL,26/11/2012,01/04/2008,A,2,28251,002,1,NULL,S,1.00,0.00,0.00,0.00,1,N,S,2.75,N,S
30479,1361,1,3,29,NULL,12/08/2013,02/04/2008,A,2,30459,002,1,NULL,S,220.00,0.00,0.00,0.00,1,N,S,2.80,N,S
12319,571,1,3,1,NULL,08/01/2009,03/04/2008,A,2,2913,001,1,NULL,S,1470.00,0.00,0.00,0.00,1,N,S,3.18,N,S
35125,258,1,3,57,NULL,04/06/2015,04/04/2008,A,2,5937,001,1,NULL,S,500.00,0.00,0.00,0.00,58,N,S,1.00,N,S
35292,489,1,3,29,NULL,27/06/2015,05/04/2008,A,2,34684,002,1,NULL,S,1790.00,0.00,0.00,0.00,58,N,S,1.00,N,S
35589,1361,1,3,29,NULL,07/08/2015,06/04/2008,A,2,34955,002,1,NULL,S,1900.00,0.00,0.00,0.00,1,N,S,1.00,N,S
35804,1326,1,3,29,NULL,03/09/2015,07/04/2008,A,2,6000,001,1,NULL,S,195.00,0.00,0.00,0.00,1,N,S,1.00,N,S
36005,1326,1,3,57,NULL,06/10/2015,08/04/2008,A,2,6025,001,1,NULL,S,1050.00,0.00,0.00,0.00,81,N,S,1.00,N,S
36296,489,1,3,29,NULL,01/12/2015,09/04/2008,A,2,35597,002,1,NULL,S,1600.00,0.00,0.00,0.00,1,N,S,1.00,N,S
36337,489,1,3,29,NULL,09/12/2015,10/04/2008,A,2,35632,002,1,NULL,S,900.00,0.00,0.00,0.00,1,N,S,1.00,N,S
36511,851,1,3,29,NULL,31/12/2015,11/04/2008,A,2,6524,001,1,NULL,S,618.00,0.00,0.00,0.00,1,N,S,1.00,N,S
36515,851,1,3,29,NULL,31/12/2015,12/04/2008,A,2,6526,001,1,NULL,S,7142.00,0.00,0.00,0.00,1,N,S,1.00,N,S
36513,851,1,3,29,NULL,31/12/2015,13/04/2008,A,2,6525,001,1,NULL,S,2807.00,0.00,0.00,0.00,1,N,S,1.00,N,S
36669,489,1,3,78,NULL,27/01/2016,14/04/2008,A,2,35932,002,1,NULL,S,1800.00,0.00,0.00,0.00,1,N,S,1.00,N,S
36812,489,1,3,29,NULL,18/02/2016,15/04/2008,A,2,36060,002,1,NULL,S,900.00,0.00,0.00,0.00,1,N,S,1.00,N,S
37102,951,1,3,78,NULL,29/03/2016,16/04/2008,A,2,36319,002,1,NULL,S,1280.00,0.00,0.00,0.00,1,N,S,1.00,N,S
37103,951,1,3,29,NULL,29/03/2016,17/04/2008,A,2,36320,002,1,NULL,S,1440.00,0.00,0.00,0.00,1,N,S,1.00,N,S
37104,951,1,3,29,NULL,29/03/2016,18/04/2008,A,2,36321,002,1,NULL,S,0.00,0.00,0.00,0.00,1,N,S,1.00,N,S
37228,489,1,3,78,NULL,18/04/2016,19/04/2008,A,2,36438,002,1,NULL,S,1250.00,0.00,0.00,0.00,81,N,S,1.00,N,S
